BSMM-8740 - Fall 2025 – The Tidymodels Framework
…
prediction
prediction & obs
with yardstick

Code

> # fit with new data
> ames_test_res <- 
+   stats::predict(
+     lm_fit
+     , new_data = ames_test %>% dplyr::select(-Sale_Price)
+   )
> ames_test_res

# A tibble: 588 × 1
   .pred
   <dbl>
 1  5.22
 2  5.21
 3  5.28
 4  5.27
 5  5.28
 6  5.28
 7  5.26
 8  5.26
 9  5.26
10  5.24
# ℹ 578 more rows

Code

> # compare predictions with corresponding data
> ames_test_res <- 
+   dplyr::bind_cols(
+     ames_test_res, ames_test %>% dplyr::select(Sale_Price))
> ames_test_res

# A tibble: 588 × 2
   .pred Sale_Price
   <dbl>      <dbl>
 1  5.22       5.02
 2  5.21       5.39
 3  5.28       5.28
 4  5.27       5.28
 5  5.28       5.28
 6  5.28       5.26
 7  5.26       5.73
 8  5.26       5.60
 9  5.26       5.32
10  5.24       4.98
# ℹ 578 more rows
…
The rsample::analysis() and rsample::assessment() functions return the corresponding data frames:

Resampling: repeated cv

The most important variation on cross-validation is repeated V-fold cross-validation. Repeated V-fold cv, reduce noise in the estimate by using more data, i.e. averaging more V statistics.

R repetitions of V-fold cross-validation reduces the standard error variance by a factor of \(1/\sqrt{\text{R}}\).

> rsample::vfold_cv(ames_train, v = 10, repeats = 5) 

#  10-fold cross-validation repeated 5 times 
# A tibble: 50 × 3
   splits             id      id2   
   <list>             <chr>   <chr> 
 1 <split [2107/235]> Repeat1 Fold01
 2 <split [2107/235]> Repeat1 Fold02
 3 <split [2108/234]> Repeat1 Fold03
 4 <split [2108/234]> Repeat1 Fold04
 5 <split [2108/234]> Repeat1 Fold05
 6 <split [2108/234]> Repeat1 Fold06
 7 <split [2108/234]> Repeat1 Fold07
 8 <split [2108/234]> Repeat1 Fold08
 9 <split [2108/234]> Repeat1 Fold09
10 <split [2108/234]> Repeat1 Fold10
# ℹ 40 more rows
…
