BSMM-8740 - Fall 2025 – Causality Part 2
…
all_results_dat

# Bootstrap sampling with apparent sample 
# A tibble: 1,001 × 7
   splits             id            ipw_fits reg_fits
   <list>             <chr>         <list>   <list>  
 1 <split [1752/643]> Bootstrap0001 <tibble> <tibble>
 2 <split [1752/666]> Bootstrap0002 <tibble> <tibble>
 3 <split [1752/643]> Bootstrap0003 <tibble> <tibble>
 4 <split [1752/631]> Bootstrap0004 <tibble> <tibble>
 5 <split [1752/640]> Bootstrap0005 <tibble> <tibble>
 6 <split [1752/654]> Bootstrap0006 <tibble> <tibble>
 7 <split [1752/626]> Bootstrap0007 <tibble> <tibble>
 8 <split [1752/644]> Bootstrap0008 <tibble> <tibble>
 9 <split [1752/658]> Bootstrap0009 <tibble> <tibble>
10 <split [1752/647]> Bootstrap0010 <tibble> <tibble>
# ℹ 991 more rows
# ℹ 3 more variables: reg_estimate <dbl>,
#   ipw_estimate <dbl>, dre_estimate <dbl>
…
# Stabilized weights
pbar <- mean(ps_by_id$treat == 1)
w_tbl <- ps_by_id |>
  dplyr::mutate(w = if_else(treat == 1, pbar/ps, (1 - pbar)/(1 - ps))) |>
  dplyr::select(id, w)

# Attach weights to the panel
panel_w <- panel |> dplyr::left_join(w_tbl, by = "id")

panel_w

# A tibble: 18,000 × 9
      id     y treat   age   inc site         t  post
   <dbl> <dbl> <dbl> <dbl> <dbl> <chr>    <dbl> <dbl>
 1     1  9.32     0  26.5  57.5 Windsor      1     0
 2     1  9.63     0  26.5  57.5 Windsor      2     0
 3     1  9.46     0  26.5  57.5 Windsor      3     0
 4     1 10.2      0  26.5  57.5 Windsor      4     1
 5     1 11.1      0  26.5  57.5 Windsor      5     1
 6     1  9.26     0  26.5  57.5 Windsor      6     1
 7     2  7.29     0  34.2  22.4 Kingston     1     0
 8     2  7.14     0  34.2  22.4 Kingston     2     0
 9     2  6.37     0  34.2  22.4 Kingston     3     0
10     2  6.95     0  34.2  22.4 Kingston     4     1
# ℹ 17,990 more rows
# ℹ 1 more variable: w <dbl>
…
