BSMM-8740 - Fall 2025 – Tidyverse, EDA & git
…
Example: data

# A tibble: 28 × 4
   name                start      end        party                
   <chr>               <date>     <date>     <chr>                
 1 John A. Macdonald   1867-07-01 1873-11-05 Conservative         
 2 Alexander Mackenzie 1873-11-07 1878-10-08 Liberal              
 3 John A. Macdonald   1878-10-17 1891-06-06 Conservative         
 4 John Abbott         1891-06-16 1892-11-24 Conservative         
 5 John Thompson       1892-12-05 1894-12-12 Conservative         
 6 Mackenzie Bowell    1894-12-21 1896-04-27 Conservative         
 7 Charles Tupper      1896-05-01 1896-07-08 Conservative         
 8 Wilfrid Laurier     1896-07-11 1911-10-06 Liberal              
 9 Robert Borden       1911-10-10 1920-07-10 Conservative/Unionist
10 Arthur Meighen      1920-07-10 1921-12-29 Conservative         
# ℹ 18 more rows

Example: select

To get just the names and parties of these prime ministers, use select(). The first argument is the data frame, followed by the column names.

dplyr::select(canadian_prime_ministers, name, party)

# A tibble: 28 × 2
   name                party                
   <chr>               <chr>                
 1 John A. Macdonald   Conservative         
 2 Alexander Mackenzie Liberal              
 3 John A. Macdonald   Conservative         
 4 John Abbott         Conservative         
 5 John Thompson       Conservative         
 6 Mackenzie Bowell    Conservative         
 7 Charles Tupper      Conservative         
 8 Wilfrid Laurier     Liberal              
 9 Robert Borden       Conservative/Unionist
10 Arthur Meighen      Conservative         
# ℹ 18 more rows
…
Example: mutate, new column

my_prime_ministers <- canadian_prime_ministers %>% 
  dplyr::mutate( 
    term.length = lubridate::interval(start, end) / lubridate::dyears(1) 
  )
my_prime_ministers

# A tibble: 28 × 5
   name                start      end        party                 term.length
   <chr>               <date>     <date>     <chr>                       <dbl>
 1 John A. Macdonald   1867-07-01 1873-11-05 Conservative                6.35 
 2 Alexander Mackenzie 1873-11-07 1878-10-08 Liberal                     4.92 
 3 John A. Macdonald   1878-10-17 1891-06-06 Conservative               12.6  
 4 John Abbott         1891-06-16 1892-11-24 Conservative                1.44 
 5 John Thompson       1892-12-05 1894-12-12 Conservative                2.02 
 6 Mackenzie Bowell    1894-12-21 1896-04-27 Conservative                1.35 
 7 Charles Tupper      1896-05-01 1896-07-08 Conservative                0.186
 8 Wilfrid Laurier     1896-07-11 1911-10-06 Liberal                    15.2  
 9 Robert Borden       1911-10-10 1920-07-10 Conservative/Unionist       8.75 
10 Arthur Meighen      1920-07-10 1921-12-29 Conservative                1.47 
# ℹ 18 more rows
…
Example, arrange - multiple columns

To break ties, we can further sort by other variables

my_prime_ministers %>% 
  dplyr::arrange(desc(term_length), party, elected)

# A tibble: 28 × 6
   name                        start      end        party   term_length elected
   <chr>                       <date>     <date>     <chr>         <dbl>   <dbl>
 1 Wilfrid Laurier             1896-07-11 1911-10-06 Liberal       15.2     1896
 2 William Lyon Mackenzie King 1935-10-23 1948-11-15 Liberal       13.1     1935
 3 John A. Macdonald           1878-10-17 1891-06-06 Conser…       12.6     1878
 4 Pierre Trudeau              1968-04-20 1979-06-04 Liberal       11.1     1968
 5 Jean Chrétien               1993-11-04 2003-12-12 Liberal       10.1     1993
 6 Stephen Harper              2006-02-06 2015-11-04 Conser…        9.74    2006
 7 Justin Trudeau              2015-11-04 2025-03-14 Liberal        9.36    2015
 8 Brian Mulroney              1984-09-17 1993-06-25 Progre…        8.77    1984
 9 Robert Borden               1911-10-10 1920-07-10 Conser…        8.75    1911
10 Louis St. Laurent           1948-11-15 1957-06-21 Liberal        8.60    1948
# ℹ 18 more rows
…
# A tibble: 3 × 2
      g data            
  <dbl> <list>          
1     1 <tibble [1 × 2]>
2     2 <tibble [2 × 2]>
3     3 <tibble [1 × 1]>

nest groups by continent, country

(gapminder_nest <- gapminder::gapminder %>% 
  dplyr::mutate(year1950 = year - 1950) %>% 
  dplyr::group_nest(continent, country)
)

# A tibble: 142 × 3
   continent country                                data
   <fct>     <fct>                    <list<tibble[,5]>>
 1 Africa    Algeria                            [12 × 5]
 2 Africa    Angola                             [12 × 5]
 3 Africa    Benin                              [12 × 5]
 4 Africa    Botswana                           [12 × 5]
 5 Africa    Burkina Faso                       [12 × 5]
 6 Africa    Burundi                            [12 × 5]
 7 Africa    Cameroon                           [12 × 5]
 8 Africa    Central African Republic           [12 × 5]
 9 Africa    Chad                               [12 × 5]
10 Africa    Comoros                            [12 × 5]
# ℹ 132 more rows

Fit a linear model for each country:

(gapminder_model <- gapminder_nest %>% 
  dplyr::mutate(
    model = 
      purrr::map(
        data
        , ~lm(lifeExp ~ year1950, data = .))
  ))

# A tibble: 142 × 4
   continent country                                data model 
   <fct>     <fct>                    <list<tibble[,5]>> <list>
 1 Africa    Algeria                            [12 × 5] <lm>  
 2 Africa    Angola                             [12 × 5] <lm>  
 3 Africa    Benin                              [12 × 5] <lm>  
 4 Africa    Botswana                           [12 × 5] <lm>  
 5 Africa    Burkina Faso                       [12 × 5] <lm>  
 6 Africa    Burundi                            [12 × 5] <lm>  
 7 Africa    Cameroon                           [12 × 5] <lm>  
 8 Africa    Central African Republic           [12 × 5] <lm>  
 9 Africa    Chad                               [12 × 5] <lm>  
10 Africa    Comoros                            [12 × 5] <lm>  
# ℹ 132 more rows
…
