BSMM-8740 - Fall 2025 – Causality
…
Figure 7: All valid adjustment sets for podcast_dag.

DAGs - open paths: example

Code

set.seed(8740)
sim_data <- podcast_dag |>
  ggdag::simulate_data()
sim_data

# A tibble: 500 × 5
     exam  humor    mood podcast prepared
    <dbl>  <dbl>   <dbl>   <dbl>    <dbl>
 1  0.687  0.529  0.0451  0.0784  -0.477 
 2  0.743  1.23  -0.235   2.28    -1.34  
 3  0.906 -0.615 -0.778  -1.36    -0.839 
 4  0.487  0.756 -0.187  -1.12     0.461 
 5 -2.39   1.00  -0.0725 -1.02     1.81  
 6  0.519 -1.42  -0.0496 -1.08    -0.429 
 7 -0.178  0.321 -0.560   0.594    0.193 
 8  0.424  0.196 -0.435  -0.396    0.618 
 9  0.972  1.98  -2.06    0.990    1.40  
10 -0.595 -1.66   0.215  -2.20    -0.0223
# ℹ 490 more rows
…
