BSMM-8740 - Fall 2025 – The recipes package
…
Feature Extraction: Identifies the most important variables (principal components) that explain the majority of the variance in the data.

PCA is like finding the most important “directions” in your data, where most of the interesting stuff happens. It helps you see the big picture by reducing complexity while keeping the essential information. This makes it a powerful tool for data analysis, especially when dealing with high-dimensional datasets.

Principal Component Analysis

Code

> pca <- basic %>% 
+   recipes::step_pca(
+     recipes::all_predictors()
+     , num_comp = 5
+   )

# A tibble: 60 × 4
   variable                type      role      source  
   <chr>                   <list>    <chr>     <chr>   
 1 Cell                    <chr [2]> ID        original
 2 AngleCh1                <chr [2]> predictor original
 3 AreaCh1                 <chr [2]> predictor original
 4 AvgIntenCh1             <chr [2]> predictor original
 5 AvgIntenCh2             <chr [2]> predictor original
 6 AvgIntenCh3             <chr [2]> predictor original
 7 AvgIntenCh4             <chr [2]> predictor original
 8 ConvexHullAreaRatioCh1  <chr [2]> predictor original
 9 ConvexHullPerimRatioCh1 <chr [2]> predictor original
10 DiffIntenDensityCh1     <chr [2]> predictor original
# ℹ 50 more rows
…
# A tibble: 7 × 4
  variable type      role      source  
  <chr>    <list>    <chr>     <chr>   
1 Cell     <chr [2]> ID        original
2 Class    <chr [3]> outcome   original
3 PC1      <chr [2]> predictor derived 
4 PC2      <chr [2]> predictor derived 
5 PC3      <chr [2]> predictor derived 
6 PC4      <chr [2]> predictor derived 
7 PC5      <chr [2]> predictor derived 

> pca %>% recipes::tidy(4)

# A tibble: 3,364 × 4
   terms                      value component id       
   <chr>                      <dbl> <chr>     <chr>    
 1 AngleCh1                 0.00521 PC1       pca_dySEj
 2 AreaCh1                  0.0823  PC1       pca_dySEj
 3 AvgIntenCh1             -0.204   PC1       pca_dySEj
 4 AvgIntenCh2             -0.209   PC1       pca_dySEj
 5 AvgIntenCh3             -0.0873  PC1       pca_dySEj
 6 AvgIntenCh4             -0.203   PC1       pca_dySEj
 7 ConvexHullAreaRatioCh1   0.191   PC1       pca_dySEj
 8 ConvexHullPerimRatioCh1 -0.181   PC1       pca_dySEj
 9 DiffIntenDensityCh1     -0.185   PC1       pca_dySEj
10 DiffIntenDensityCh3     -0.0760  PC1       pca_dySEj
# ℹ 3,354 more rows
…
